(load uav1 water0 depot)
(fly uav1 depot person9)
(unload uav1 water0 person9)
(drink person9 water0)
(load uav2 drugs0 depot)
(fly uav2 depot person19)
(unload uav2 drugs0 person19)
(cure person19 drugs0)
(fly uav1 person9 depot)
(load uav1 drugs8 depot)
(fly uav1 depot person0)
(unload uav1 drugs8 person0)
(cure person0 drugs8)
(fly uav2 person19 depot)
(load uav2 drugs1 depot)
(fly uav2 depot person17)
(unload uav2 drugs1 person17)
(cure person17 drugs1)
(fly uav2 person17 depot)
(load uav2 water1 depot)
(fly uav2 depot person13)
(unload uav2 water1 person13)
(drink person13 water1)
(fly uav2 person13 depot)
(load uav2 water2 depot)
(fly uav2 depot person4)
(unload uav2 water2 person4)
(drink person4 water2)
(fly uav2 person4 depot)
(load uav2 food0 depot)
(fly uav2 depot person6)
(unload uav2 food0 person6)
(eat person6 food0)
(fly uav2 person6 person17)
(fly uav2 person17 depot)
(load uav2 drugs2 depot)
(fly uav2 depot person11)
(unload uav2 drugs2 person11)
(cure person11 drugs2)
(fly uav2 person11 person17)
(fly uav2 person17 depot)
(load uav2 drugs3 depot)
(fly uav2 depot person4)
(unload uav2 drugs3 person4)
(cure person4 drugs3)
(fly uav2 person4 person17)
(fly uav2 person17 depot)
(load uav2 drugs4 depot)
(fly uav2 depot person15)
(unload uav2 drugs4 person15)
(cure person15 drugs4)
(fly uav2 person15 depot)
(load uav2 drugs5 depot)
(fly uav2 depot person16)
(unload uav2 drugs5 person16)
(cure person16 drugs5)
(fly uav2 person16 person17)
(fly uav2 person17 depot)
(load uav2 drugs6 depot)
(fly uav2 depot person13)
(unload uav2 drugs6 person13)
(cure person13 drugs6)
(fly uav2 person13 depot)
(load uav2 drugs7 depot)
(fly uav2 depot person23)
(fly uav1 person0 person17)
(fly uav1 person17 depot)
(unload uav2 drugs7 person23)
(cure person23 drugs7)
(load uav1 drugs9 depot)
(fly uav1 depot person5)
(unload uav1 drugs9 person5)
(cure person5 drugs9)
(fly uav2 person23 person17)
(fly uav2 person17 depot)
(load uav2 food1 depot)
(fly uav2 depot person13)
(fly uav1 person5 person19)
(unload uav2 food1 person13)
(eat person13 food1)
(fly uav1 person19 depot)
(load uav1 food2 depot)
(fly uav1 depot person29)
(unload uav1 food2 person29)
(eat person29 food2)
(fly uav2 person13 person17)
(fly uav2 person17 depot)
(load uav2 food3 depot)
(fly uav2 depot person20)
(unload uav2 food3 person20)
(eat person20 food3)
(fly uav2 person20 person17)
(fly uav2 person17 depot)
(load uav2 water3 depot)
(fly uav2 depot person2)
(unload uav2 water3 person2)
(drink person2 water3)
(fly uav2 person2 depot)
(load uav2 food4 depot)
(fly uav2 depot person15)
(unload uav2 food4 person15)
(eat person15 food4)
(fly uav2 person15 depot)
(load uav2 water4 depot)
(fly uav2 depot person17)
(unload uav2 water4 person17)
(drink person17 water4)
(fly uav2 person17 depot)
(load uav2 food5 depot)
(fly uav2 depot person9)
(unload uav2 food5 person9)
(eat person9 food5)
(fly uav2 person9 depot)
(load uav2 water5 depot)
(fly uav2 depot person3)
(unload uav2 water5 person3)
(drink person3 water5)
(fly uav2 person3 depot)
(load uav2 water6 depot)
(fly uav2 depot person15)
(fly uav1 person29 depot)
(load uav1 food6 depot)
(fly uav1 depot person17)
(unload uav2 water6 person15)
(drink person15 water6)
(unload uav1 food6 person17)
(eat person17 food6)
(fly uav2 person15 person7)
(fly uav2 person7 depot)
(load uav2 water7 depot)
(fly uav2 depot person18)
(unload uav2 water7 person18)
(drink person18 water7)
(fly uav2 person18 depot)
(load uav2 water8 depot)
(fly uav2 depot person19)
(fly uav1 person17 depot)
(load uav1 food7 depot)
(fly uav1 depot person7)
(unload uav2 water8 person19)
(drink person19 water8)
(unload uav1 food7 person7)
(eat person7 food7)
(fly uav2 person19 person22)
(fly uav2 person22 depot)
(load uav2 food8 depot)
(fly uav2 depot person22)
(fly uav1 person7 person12)
(fly uav1 person12 depot)
(load uav1 water9 depot)
(fly uav1 depot person12)
(unload uav1 water9 person12)
(drink person12 water9)
(unload uav2 food8 person22)
(eat person22 food8)
(fly uav2 person22 person2)
(fly uav2 person2 depot)
(load uav2 food9 depot)
(fly uav2 depot person2)
(unload uav2 food9 person2)
(eat person2 food9)
